{
  "login.emailPlaceholder": "Email",
  "login.passwordPlaceholder": "Password",
  "login.forgotPassword": "Forgot password?",
  "bottomBar.parties": "Parties",
  "bottomBar.chat": "Chat",
  "bottomBar.calendar": "Calendar",
  "bottomBar.profile": "Profile",
  "calendar.componentTitle": "TESTED",
  "options.ok": "Ok",
  "options.dismiss": "Dismiss",
  "options.logout": "Log Out",
  "profileScreen.changeLanguage": "Change your language",
  "welcome.slogan1": "Simplify your party life",
  "welcome.slogan2": "Organize, make plans, schedule, invite others!",
  "welcome.register": "Register Now",
  "welcome.login": "Login Now"
}